TO 628 Group 5 Project: Faulty Steel Plates Prediction
…
Checking for missing values:

faults %>% miss_var_summary() #No NAs

## # A tibble: 35 x 3
##    variable              n_miss pct_miss
##    <chr>                  <int>    <dbl>
##  1 X_Minimum                  0        0
##  2 X_Maximum                  0        0
##  3 Y_Minimum                  0        0
##  4 Y_Maximum                  0        0
##  5 Pixels_Areas               0        0
##  6 X_Perimeter                0        0
##  7 Y_Perimeter                0        0
##  8 Sum_of_Luminosity          0        0
##  9 Minimum_of_Luminosity      0        0
## 10 Maximum_of_Luminosity      0        0
## #  with 25 more rows
…
